<?xml version="1.0" encoding="utf-8"?>
<!-- Generator: Adobe Illustrator 21.0.0, SVG Export Plug-In . SVG Version: 6.00 Build 0)  -->
<svg version="1.1" id="Capa_1" xmlns="http://www.w3.org/2000/svg" xmlns:xlink="http://www.w3.org/1999/xlink" x="0px" y="0px"
	 viewBox="0 0 512 512" style="enable-background:new 0 0 512 512;" xml:space="preserve" fill="#6fb938">
<g>
	<g>
		<path d="M270.1,388.4l236.2-236.8c7.7-7.8,7.7-20.3,0-28.1c-7.8-7.7-20.3-7.7-28.1,0L256,346.3L33.9,123.6
			c-7.7-7.8-20.3-7.8-28.1,0c-3.9,3.9-5.8,9-5.8,14.1c0,5.1,1.9,10.1,5.8,14l236.2,236.8c3.7,3.7,8.8,5.8,14,5.8
			S266.3,392.2,270.1,388.4z"/>
	</g>
</g>
</svg>
