<svg id="chat_1_" data-name="chat (1)" xmlns="http://www.w3.org/2000/svg" width="20.86" height="20.86" viewBox="0 0 20.86 20.86">
  <g id="Group_3038" data-name="Group 3038">
    <path id="Path_9257" data-name="Path 9257" d="M10.43,0A10.442,10.442,0,0,0,0,10.43v9.778a.652.652,0,0,0,.652.652H10.43A10.43,10.43,0,1,0,10.43,0Zm.652,13.038H5.867a.652.652,0,1,1,0-1.3h5.215a.652.652,0,1,1,0,1.3Zm3.911-3.911H5.867a.652.652,0,1,1,0-1.3h9.126a.652.652,0,1,1,0,1.3Z" fill="#2f130d"/>
  </g>
</svg>
