<svg width="18" height="12" viewBox="0 0 18 12" fill="none" xmlns="http://www.w3.org/2000/svg">
<path fill-rule="evenodd" clip-rule="evenodd" d="M16.373 11.726H1.5777C0.707771 11.726 0 11.0087 0 10.127V1.599C0 0.717329 0.707771 0 1.5777 0H16.373C17.2429 0 17.9507 0.717329 17.9507 1.599V10.127C17.9507 11.0087 17.2429 11.726 16.373 11.726Z" fill="#D8D8D8"/>
<path fill-rule="evenodd" clip-rule="evenodd" d="M18 5H0V2H18V5Z" fill="black"/>
<path fill-rule="evenodd" clip-rule="evenodd" d="M2 7.64404H12.1094V9.16459H2V7.64404Z" fill="white"/>
<path d="M14.2295 8.53711C14.2152 8.6888 14.1592 8.80729 14.0615 8.89258C13.9639 8.97721 13.834 9.01953 13.6719 9.01953C13.5586 9.01953 13.4587 8.99284 13.3721 8.93945C13.2861 8.88542 13.2197 8.80892 13.1729 8.70996C13.126 8.611 13.1016 8.49609 13.0996 8.36523V8.23242C13.0996 8.09831 13.1234 7.98014 13.1709 7.87793C13.2184 7.77572 13.2865 7.69694 13.375 7.6416C13.4642 7.58626 13.5671 7.55859 13.6836 7.55859C13.8405 7.55859 13.9668 7.60124 14.0625 7.68652C14.1582 7.77181 14.2139 7.89225 14.2295 8.04785H13.9834C13.9717 7.94564 13.9417 7.87207 13.8936 7.82715C13.846 7.78158 13.776 7.75879 13.6836 7.75879C13.5762 7.75879 13.4935 7.79818 13.4355 7.87695C13.3783 7.95508 13.349 8.06999 13.3477 8.22168V8.34766C13.3477 8.5013 13.375 8.61849 13.4297 8.69922C13.485 8.77995 13.5658 8.82031 13.6719 8.82031C13.7689 8.82031 13.8418 8.7985 13.8906 8.75488C13.9395 8.71126 13.9704 8.63867 13.9834 8.53711H14.2295ZM15.0321 8.69043L15.3935 7.57812H15.665L15.1532 9H14.914L14.4042 7.57812H14.6747L15.0321 8.69043ZM16.4071 8.69043L16.7684 7.57812H17.0399L16.5282 9H16.2889L15.7791 7.57812H16.0496L16.4071 8.69043Z" fill="black"/>
</svg>
