<svg xmlns="http://www.w3.org/2000/svg" width="24" height="24" viewBox="0 0 24 24">
  <g id="Group_2963" data-name="Group 2963" transform="translate(-51 -116)">
    <g id="menu_4_" data-name="menu (4)" transform="translate(51 116)">
      <g id="Group_2957" data-name="Group 2957">
        <path id="Path_9217" data-name="Path 9217" d="M9.5,8h-8A1.5,1.5,0,0,1,0,6.5v-5A1.5,1.5,0,0,1,1.5,0h8A1.5,1.5,0,0,1,11,1.5v5A1.5,1.5,0,0,1,9.5,8Zm-8-7a.5.5,0,0,0-.5.5v5a.5.5,0,0,0,.5.5h8a.5.5,0,0,0,.5-.5v-5A.5.5,0,0,0,9.5,1Z" fill="#fff"/>
      </g>
      <g id="Group_2958" data-name="Group 2958">
        <path id="Path_9218" data-name="Path 9218" d="M9.5,24h-8A1.5,1.5,0,0,1,0,22.5v-11A1.5,1.5,0,0,1,1.5,10h8A1.5,1.5,0,0,1,11,11.5v11A1.5,1.5,0,0,1,9.5,24Zm-8-13a.5.5,0,0,0-.5.5v11a.5.5,0,0,0,.5.5h8a.5.5,0,0,0,.5-.5v-11a.5.5,0,0,0-.5-.5Z" fill="#fff"/>
      </g>
      <g id="Group_2959" data-name="Group 2959">
        <path id="Path_9219" data-name="Path 9219" d="M22.5,24h-8A1.5,1.5,0,0,1,13,22.5v-5A1.5,1.5,0,0,1,14.5,16h8A1.5,1.5,0,0,1,24,17.5v5A1.5,1.5,0,0,1,22.5,24Zm-8-7a.5.5,0,0,0-.5.5v5a.5.5,0,0,0,.5.5h8a.5.5,0,0,0,.5-.5v-5a.5.5,0,0,0-.5-.5Z" fill="#fff"/>
      </g>
      <g id="Group_2960" data-name="Group 2960">
        <path id="Path_9220" data-name="Path 9220" d="M22.5,14h-8A1.5,1.5,0,0,1,13,12.5V1.5A1.5,1.5,0,0,1,14.5,0h8A1.5,1.5,0,0,1,24,1.5v11A1.5,1.5,0,0,1,22.5,14Zm-8-13a.5.5,0,0,0-.5.5v11a.5.5,0,0,0,.5.5h8a.5.5,0,0,0,.5-.5V1.5a.5.5,0,0,0-.5-.5Z" fill="#fff"/>
      </g>
    </g>
    <rect id="Rectangle_719" data-name="Rectangle 719" width="9" height="6" transform="translate(52 117)" fill="#fff" stroke="#fff" stroke-width="0.5"/>
    <rect id="Rectangle_722" data-name="Rectangle 722" width="9" height="6" transform="translate(74 139) rotate(180)" fill="#fff" stroke="#fff" stroke-width="0.5"/>
    <rect id="Rectangle_720" data-name="Rectangle 720" width="9" height="12" transform="translate(52 127)" fill="#fff" stroke="#fff" stroke-width="0.5"/>
    <rect id="Rectangle_721" data-name="Rectangle 721" width="9" height="12" transform="translate(74 129) rotate(180)" fill="#fff" stroke="#fff" stroke-width="0.5"/>
  </g>
</svg>
