<svg xmlns="http://www.w3.org/2000/svg" width="17.793" height="24.572" viewBox="0 0 17.793 24.572">
  <g id="Group_3116" data-name="Group 3116" transform="translate(249 -742)">
    <g id="dentist_2_" data-name="dentist (2)" transform="translate(-249 742)">
      <path id="Path_9246" data-name="Path 9246" d="M85.232,48.828H83.527v-.656a4.881,4.881,0,0,0,3.343-4h.682a1.483,1.483,0,0,0,0-2.966h-.635V36.456A2.459,2.459,0,0,0,84.46,34H79.628a2.459,2.459,0,0,0-2.456,2.456V41.2h-.635a1.483,1.483,0,0,0,0,2.966h.682a4.881,4.881,0,0,0,3.343,4v.656H79.279a5.927,5.927,0,0,0-5.92,5.92v3.4a.424.424,0,0,0,.424.424H90.729a.424.424,0,0,0,.424-.424v-3.4A5.927,5.927,0,0,0,85.232,48.828Zm-7.213-5.3V40.778h2.4a1.741,1.741,0,0,0,3.247,0h2.4v2.754a4,4,0,0,1-.294,1.5l-1.021-.409a6.38,6.38,0,0,0-2.379-.458H81.83a6.365,6.365,0,0,0-2.6.552l-.885.394A4,4,0,0,1,78.019,43.532Zm8.049-3.6h-2.3a1.727,1.727,0,0,0-.346-.847h2.645Zm-3.125.212a.9.9,0,1,1-.9-.9A.9.9,0,0,1,82.944,40.143Zm-2.626-.212h-2.3v-.847h2.645A1.729,1.729,0,0,0,80.318,39.931Zm7.233,2.118a.635.635,0,0,1,0,1.271h-.635V42.049Zm-7.923-7.2H84.46a1.611,1.611,0,0,1,1.609,1.609v1.78H78.019v-1.78A1.611,1.611,0,0,1,79.628,34.847ZM75.9,42.685a.636.636,0,0,1,.635-.635h.635V43.32h-.635A.636.636,0,0,1,75.9,42.685Zm2.862,3.169.811-.361a5.524,5.524,0,0,1,2.257-.479h.545a5.533,5.533,0,0,1,2.064.4l.937.375a4.017,4.017,0,0,1-6.613.067Zm3.281,2.55a4.858,4.858,0,0,0,.635-.046v1.106a.635.635,0,0,1-1.271,0V48.358A4.858,4.858,0,0,0,82.044,48.4Zm5.3,7.2H84.8V54.335H87.34Zm2.966,2.118H88.187V53.912a.424.424,0,0,0-.424-.424H84.374a.424.424,0,0,0-.424.424V56.03a.424.424,0,0,0,.424.424H87.34v1.271H77.172V53.912a.424.424,0,0,0-.847,0v3.813H74.206V54.748a5.079,5.079,0,0,1,5.073-5.073h1.3a1.476,1.476,0,0,0,2.923,0h1.727a5.079,5.079,0,0,1,5.073,5.073Z" transform="translate(-73.359 -34)" fill="#fff"/>
      <circle id="Ellipse_1177" data-name="Ellipse 1177" cx="0.322" cy="0.322" r="0.322" transform="translate(10.057 8.786)" fill="#fff"/>
      <circle id="Ellipse_1178" data-name="Ellipse 1178" cx="0.322" cy="0.322" r="0.322" transform="translate(6.668 8.786)" fill="#fff"/>
      <path id="Path_9249" data-name="Path 9249" d="M6.775,2.98A2.085,2.085,0,0,1,8.879.638a34.859,34.859,0,0,1,5.285.053S15.388.9,15.508,1.836s.12,2.982.12,2.982H6.775Z" transform="translate(-2.545 -0.208)" fill="#fff"/>
    </g>
    <path id="Path_9247" data-name="Path 9247" d="M-204.284,843.714a7.749,7.749,0,0,1,4.078-1.027,6.716,6.716,0,0,1,3.674,1.027s-.872,1.588-1.961,1.868a5.265,5.265,0,0,1-3.331,0A5.327,5.327,0,0,1-204.284,843.714Z" transform="translate(-39.98 -90.02)" fill="#fff"/>
    <path id="Path_9248" data-name="Path 9248" d="M-244.847,894.816h16.873v-4.639a5.343,5.343,0,0,0-1.712-2.8c-1.214-.778-1.525-1.214-3.3-1.339a12.751,12.751,0,0,0-2.553,0s0,1.432-.965,1.339-1.183-1.339-1.183-1.339h-3.082a6.614,6.614,0,0,0-2.584,1.588,5.266,5.266,0,0,0-1.494,3.611Z" transform="translate(-3.713 -128.732)" fill="#fff"/>
  </g>
</svg>
