<svg xmlns="http://www.w3.org/2000/svg" width="24.63" height="23" viewBox="0 0 24.63 23">
  <g id="Group_3118" data-name="Group 3118" transform="translate(216 -453)">
    <g id="Group_3114" data-name="Group 3114" transform="translate(712 32)">
      <circle id="Ellipse_1179" data-name="Ellipse 1179" cx="5.5" cy="5.5" r="5.5" transform="translate(-921 433)" fill="#fff"/>
      <g id="email_1_" data-name="email (1)" transform="translate(-928 421)">
        <path id="Path_1492" data-name="Path 1492" d="M21.952,28.254H19.811a.535.535,0,1,1,0-1.071h2.142a1.608,1.608,0,0,0,1.606-1.606V13.8a1.608,1.608,0,0,0-1.606-1.606H2.677A1.608,1.608,0,0,0,1.071,13.8V25.577a1.608,1.608,0,0,0,1.606,1.606H4.819a.535.535,0,1,1,0,1.071H2.677A2.681,2.681,0,0,1,0,25.576V13.8A2.681,2.681,0,0,1,2.677,11.12H21.953A2.679,2.679,0,0,1,24.63,13.8V25.577A2.68,2.68,0,0,1,21.952,28.254Z" transform="translate(0 -11.12)" fill="#fff"/>
        <path id="Path_1493" data-name="Path 1493" d="M54.7,63.132A2.766,2.766,0,0,1,53.06,62.6l-8.316-6.006a.535.535,0,1,1,.626-.868l8.321,6.009a1.692,1.692,0,0,0,2.006,0l8.322-6.011a.535.535,0,0,1,.628.867L56.325,62.6A2.752,2.752,0,0,1,54.7,63.132Z" transform="translate(-42.38 -53.479)" fill="#fff"/>
        <path id="Path_1494" data-name="Path 1494" d="M45.053,195.649a.535.535,0,0,1-.379-.913l5.354-5.354a.535.535,0,1,1,.757.757l-5.354,5.354A.534.534,0,0,1,45.053,195.649Z" transform="translate(-42.376 -180.657)" fill="#fff"/>
        <path id="Path_1495" data-name="Path 1495" d="M339.8,195.648a.538.538,0,0,1-.379-.156l-5.354-5.354a.535.535,0,0,1,.757-.757l5.354,5.354a.535.535,0,0,1-.378.913Z" transform="translate(-317.846 -180.656)" fill="#fff"/>
      </g>
      <path id="check-mark" d="M7.961,3.769a.431.431,0,0,1,0,.61L5.068,7.273a.431.431,0,0,1-.61,0L3.08,5.9a.431.431,0,1,1,.61-.61L4.763,6.358,7.351,3.769a.431.431,0,0,1,.61,0Z" transform="translate(-921.205 432.941)" fill="#21ce99"/>
    </g>
  </g>
</svg>
