<svg xmlns="http://www.w3.org/2000/svg" width="20" height="24" viewBox="0 0 20 24">
  <g id="Group_3117" data-name="Group 3117" transform="translate(214 -597)">
    <path id="Path_9254" data-name="Path 9254" d="M2.382,6.227V2.076L3.9.47,4.791.291,19.607.47l1.25.357.669,1.919V21.757L20.857,23.1l-2.231.536H4.791L3.185,23.1l-.8-1.651Z" transform="translate(-216 597)" fill="#fff"/>
    <path id="Path_9207" data-name="Path 9207" d="M19.5,24H4.5A2.5,2.5,0,0,1,2,21.5V2.5A2.5,2.5,0,0,1,4.5,0h15A2.5,2.5,0,0,1,22,2.5v19A2.5,2.5,0,0,1,19.5,24ZM4.5,1A1.5,1.5,0,0,0,3,2.5v19A1.5,1.5,0,0,0,4.5,23h15A1.5,1.5,0,0,0,21,21.5V2.5A1.5,1.5,0,0,0,19.5,1Z" transform="translate(-216 597)" fill="#fff"/>
    <path id="Path_9208" data-name="Path 9208" d="M18.5,12h-2a.5.5,0,0,1,0-1h2a.5.5,0,0,1,0,1Z" transform="translate(-216 597)" fill="#21ce99"/>
    <path id="Path_9209" data-name="Path 9209" d="M18.5,9h-2a.5.5,0,0,1,0-1h2a.5.5,0,0,1,0,1Z" transform="translate(-216 597)" fill="#21ce99"/>
    <path id="Path_9210" data-name="Path 9210" d="M18.5,15h-2a.5.5,0,0,1,0-1h2a.5.5,0,0,1,0,1Z" transform="translate(-216 597)" fill="#21ce99"/>
    <path id="Path_9211" data-name="Path 9211" d="M18.5,18h-2a.5.5,0,0,1,0-1h2a.5.5,0,0,1,0,1Z" transform="translate(-216 597)" fill="#21ce99"/>
    <path id="Path_9212" data-name="Path 9212" d="M18.5,21H5.5a.5.5,0,0,1,0-1h13a.5.5,0,0,1,0,1Z" transform="translate(-216 597)" fill="#21ce99"/>
    <path id="Path_9213" data-name="Path 9213" d="M10,18a5,5,0,1,1,5-5A5.006,5.006,0,0,1,10,18Zm0-9a4,4,0,1,0,4,4A4,4,0,0,0,10,9Z" transform="translate(-216 597)" fill="#21ce99"/>
    <path id="Path_9214" data-name="Path 9214" d="M6.818,16.682a.5.5,0,0,1-.354-.853L9.5,12.793V8.5a.5.5,0,0,1,1,0V13a.5.5,0,0,1-.146.354L7.172,16.536A.5.5,0,0,1,6.818,16.682Z" transform="translate(-216 597)" fill="#21ce99"/>
  </g>
</svg>
