<svg xmlns="http://www.w3.org/2000/svg" width="25.438" height="20.513" viewBox="0 0 25.438 20.513">
  <g id="sync_2_" data-name="sync (2)" transform="translate(-7.976 -56)">
    <path id="Path_1484" data-name="Path 1484" d="M30.072,61.449a5.744,5.744,0,0,0-10.555-2.831,5.339,5.339,0,0,0-6.208,3.126,5.333,5.333,0,0,0-.563,10.637.4.4,0,0,0,.153.03h2.605a5.334,5.334,0,0,0,10.38,0H28.08a.412.412,0,0,0,.145-.026,5.745,5.745,0,0,0,1.847-10.936ZM20.7,75.693a4.513,4.513,0,1,1,4.513-4.513A4.513,4.513,0,0,1,20.7,75.693Zm10.579-5.672a4.9,4.9,0,0,1-3.225,1.555.407.407,0,0,0-.08.014H26.013q.015-.2.015-.41a5.333,5.333,0,1,0-10.667,0q0,.207.015.41h-2.36a.4.4,0,0,0-.083-.015,4.513,4.513,0,0,1,.376-9.01c.081,0,.164,0,.255.008a.41.41,0,0,0,.41-.274,4.518,4.518,0,0,1,5.607-2.811.409.409,0,0,0,.478-.187,4.924,4.924,0,0,1,9.2,2.423.411.411,0,0,0,.256.379,4.924,4.924,0,0,1,1.758,7.919Z" transform="translate(0)" fill="#2f130d"/>
    <path id="Path_1485" data-name="Path 1485" d="M177.761,290.582l-.025.025a2.466,2.466,0,0,1,2.367-1.786.41.41,0,1,0,0-.821,3.287,3.287,0,0,0-3.238,2.746l-.165-.165a.41.41,0,0,0-.58.58l.821.821a.41.41,0,0,0,.58,0l.821-.821a.41.41,0,0,0-.58-.58Z" transform="translate(-159.407 -220.102)" fill="#2f130d"/>
    <path id="Path_1486" data-name="Path 1486" d="M252.393,337.521a.411.411,0,0,1-.581,0l-.165-.165a3.287,3.287,0,0,1-3.238,2.746.41.41,0,1,1,0-.82,2.466,2.466,0,0,0,2.367-1.786l-.025.025a.41.41,0,0,1-.581-.581l.821-.821a.411.411,0,0,1,.581,0l.821.821A.411.411,0,0,1,252.393,337.521Z" transform="translate(-227.715 -265.641)" fill="#2f130d"/>
    <path id="Path_9253" data-name="Path 9253" d="M25.737,72h2.437l2.321-.624s2.435-2.306,2.455-4.033-1.077-4.713-2.884-5.444-.2-.366-.2-.366l-1-2.3-1.584-1.93-2.336-.833H22.854l-1.727,1.016-1.361,1.6-1.909-.2-1.848.528-1.341,1.016-1.219,1.828-2.62.548L9.224,64.4l-.752,2.661L9,69.537,10.281,71l1.869,1,2.011.218L15.785,72l.223-2.1,1-2.092,1.645-1.32,1.93-.345,2.011.487,1.767,1.28.934,1.625Z" fill="#2f130d"/>
  </g>
</svg>
