<svg width="16" height="22" viewBox="0 0 16 22" fill="none" xmlns="http://www.w3.org/2000/svg">
<path d="M10.9075 1.05938C10.8154 0.962321 10.689 0.904053 10.5581 0.904053H2.71782C1.27109 0.904053 0.0769043 2.09348 0.0769043 3.54006V18.366C0.0769043 19.8127 1.27109 21.0022 2.71782 21.0022H13.3591C14.8058 21.0022 16 19.8127 16 18.366V6.5936C16 6.4674 15.9417 6.34611 15.8592 6.2538L10.9075 1.05938ZM11.0483 2.61774L14.364 6.09847H12.2086C11.5678 6.09847 11.0483 5.58388 11.0483 4.94308V2.61774ZM13.3591 20.0312H2.71782C1.81006 20.0312 1.04783 19.2788 1.04783 18.366V3.54006C1.04783 2.63231 1.80516 1.87498 2.71782 1.87498H10.0773V4.94308C10.0773 6.1227 11.029 7.0694 12.2086 7.0694H15.029V18.366C15.029 19.2788 14.2717 20.0312 13.3591 20.0312Z" fill="white"/>
<path d="M10.6584 14.3804C10.5436 14.2082 10.5902 13.9755 10.7624 13.8606L11.9595 13.0625C12.1275 12.9474 12.3696 12.9943 12.4817 13.165L13.2813 14.3644C13.3961 14.5367 13.3495 14.7693 13.1773 14.8843C13.005 14.999 12.7724 14.9525 12.6576 14.7802L12.4176 14.4202C11.947 16.3272 10.2219 17.7458 8.17167 17.7458C6.43274 17.7458 4.85903 16.7159 4.16288 15.1222C4.07988 14.9326 4.16639 14.7116 4.35616 14.6286C4.54593 14.5458 4.76688 14.6323 4.84968 14.8221C5.42679 16.1427 6.73065 16.9961 8.17167 16.9961C9.91138 16.9961 11.368 15.7638 11.7158 14.1261L11.1782 14.4845C11.006 14.5992 10.7733 14.5526 10.6584 14.3804Z" fill="white"/>
<path d="M4.09958 13.7404C4.00333 13.7211 3.91604 13.6624 3.86148 13.5808L3.06187 12.3814C2.95744 12.2247 2.98802 12.0079 3.1324 11.8867C3.30132 11.7448 3.56338 11.7822 3.68554 11.9656L3.92559 12.3256C4.39612 10.4186 6.12121 8.99996 8.17149 8.99996C9.93283 8.99996 11.5143 10.0484 12.2005 11.6706C12.2812 11.8613 12.1922 12.0813 12.0014 12.1618C11.8107 12.2425 11.5909 12.1532 11.5102 11.9627C10.9415 10.6183 9.63103 9.7497 8.17149 9.7497C6.43179 9.7497 4.97518 10.9822 4.62739 12.6197L5.16495 12.2614C5.33719 12.1466 5.57002 12.1932 5.68478 12.3654C5.79954 12.5376 5.75297 12.7703 5.58073 12.8852L4.38365 13.6833C4.30182 13.7394 4.1966 13.7599 4.09958 13.7404Z" fill="white"/>
</svg>
