<svg width="63" height="33" viewBox="0 0 63 33" fill="none" xmlns="http://www.w3.org/2000/svg">
<path d="M14.498 28.5059L16.9355 21.4688H18.166L15.002 30H14.0059L10.8477 21.4688H12.0723L14.498 28.5059ZM20.3223 30H19.2383V23.6602H20.3223V30ZM19.1504 21.9785C19.1504 21.8027 19.2031 21.6543 19.3086 21.5332C19.418 21.4121 19.5781 21.3516 19.7891 21.3516C20 21.3516 20.1602 21.4121 20.2695 21.5332C20.3789 21.6543 20.4336 21.8027 20.4336 21.9785C20.4336 22.1543 20.3789 22.3008 20.2695 22.418C20.1602 22.5352 20 22.5938 19.7891 22.5938C19.5781 22.5938 19.418 22.5352 19.3086 22.418C19.2031 22.3008 19.1504 22.1543 19.1504 21.9785ZM25.7539 28.3184C25.7539 28.0254 25.6426 27.7988 25.4199 27.6387C25.2012 27.4746 24.8164 27.334 24.2656 27.2168C23.7188 27.0996 23.2832 26.959 22.959 26.7949C22.6387 26.6309 22.4004 26.4355 22.2441 26.209C22.0918 25.9824 22.0156 25.7129 22.0156 25.4004C22.0156 24.8809 22.2344 24.4414 22.6719 24.082C23.1133 23.7227 23.6758 23.543 24.3594 23.543C25.0781 23.543 25.6602 23.7285 26.1055 24.0996C26.5547 24.4707 26.7793 24.9453 26.7793 25.5234H25.6895C25.6895 25.2266 25.5625 24.9707 25.3086 24.7559C25.0586 24.541 24.7422 24.4336 24.3594 24.4336C23.9648 24.4336 23.6562 24.5195 23.4336 24.6914C23.2109 24.8633 23.0996 25.0879 23.0996 25.3652C23.0996 25.627 23.2031 25.8242 23.4102 25.957C23.6172 26.0898 23.9902 26.2168 24.5293 26.3379C25.0723 26.459 25.5117 26.6035 25.8477 26.7715C26.1836 26.9395 26.4316 27.1426 26.5918 27.3809C26.7559 27.6152 26.8379 27.9023 26.8379 28.2422C26.8379 28.8086 26.6113 29.2637 26.1582 29.6074C25.7051 29.9473 25.1172 30.1172 24.3945 30.1172C23.8867 30.1172 23.4375 30.0273 23.0469 29.8477C22.6562 29.668 22.3496 29.418 22.127 29.0977C21.9082 28.7734 21.7988 28.4238 21.7988 28.0488H22.8828C22.9023 28.4121 23.0469 28.7012 23.3164 28.916C23.5898 29.127 23.9492 29.2324 24.3945 29.2324C24.8047 29.2324 25.1328 29.1504 25.3789 28.9863C25.6289 28.8184 25.7539 28.5957 25.7539 28.3184ZM32.1641 30C32.1016 29.875 32.0508 29.6523 32.0117 29.332C31.5078 29.8555 30.9062 30.1172 30.207 30.1172C29.582 30.1172 29.0684 29.9414 28.666 29.5898C28.2676 29.2344 28.0684 28.7852 28.0684 28.2422C28.0684 27.582 28.3184 27.0703 28.8184 26.707C29.3223 26.3398 30.0293 26.1562 30.9395 26.1562H31.9941V25.6582C31.9941 25.2793 31.8809 24.9785 31.6543 24.7559C31.4277 24.5293 31.0938 24.416 30.6523 24.416C30.2656 24.416 29.9414 24.5137 29.6797 24.709C29.418 24.9043 29.2871 25.1406 29.2871 25.418H28.1973C28.1973 25.1016 28.3086 24.7969 28.5312 24.5039C28.7578 24.207 29.0625 23.9727 29.4453 23.8008C29.832 23.6289 30.2559 23.543 30.7168 23.543C31.4473 23.543 32.0195 23.7266 32.4336 24.0938C32.8477 24.457 33.0625 24.959 33.0781 25.5996V28.5176C33.0781 29.0996 33.1523 29.5625 33.3008 29.9062V30H32.1641ZM30.3652 29.1738C30.7051 29.1738 31.0273 29.0859 31.332 28.9102C31.6367 28.7344 31.8574 28.5059 31.9941 28.2246V26.9238H31.1445C29.8164 26.9238 29.1523 27.3125 29.1523 28.0898C29.1523 28.4297 29.2656 28.6953 29.4922 28.8867C29.7188 29.0781 30.0098 29.1738 30.3652 29.1738ZM44.1992 27.293C44.0938 28.1953 43.7598 28.8926 43.1973 29.3848C42.6387 29.873 41.8945 30.1172 40.9648 30.1172C39.957 30.1172 39.1484 29.7559 38.5391 29.0332C37.9336 28.3105 37.6309 27.3438 37.6309 26.1328V25.3125C37.6309 24.5195 37.7715 23.8223 38.0527 23.2207C38.3379 22.6191 38.7402 22.1582 39.2598 21.8379C39.7793 21.5137 40.3809 21.3516 41.0645 21.3516C41.9707 21.3516 42.6973 21.6055 43.2441 22.1133C43.791 22.6172 44.1094 23.3164 44.1992 24.2109H43.0684C42.9707 23.5312 42.7578 23.0391 42.4297 22.7344C42.1055 22.4297 41.6504 22.2773 41.0645 22.2773C40.3457 22.2773 39.7812 22.543 39.3711 23.0742C38.9648 23.6055 38.7617 24.3613 38.7617 25.3418V26.168C38.7617 27.0938 38.9551 27.8301 39.3418 28.377C39.7285 28.9238 40.2695 29.1973 40.9648 29.1973C41.5898 29.1973 42.0684 29.0566 42.4004 28.7754C42.7363 28.4902 42.959 27.9961 43.0684 27.293H44.1992ZM49.4844 30C49.4219 29.875 49.3711 29.6523 49.332 29.332C48.8281 29.8555 48.2266 30.1172 47.5273 30.1172C46.9023 30.1172 46.3887 29.9414 45.9863 29.5898C45.5879 29.2344 45.3887 28.7852 45.3887 28.2422C45.3887 27.582 45.6387 27.0703 46.1387 26.707C46.6426 26.3398 47.3496 26.1562 48.2598 26.1562H49.3145V25.6582C49.3145 25.2793 49.2012 24.9785 48.9746 24.7559C48.748 24.5293 48.4141 24.416 47.9727 24.416C47.5859 24.416 47.2617 24.5137 47 24.709C46.7383 24.9043 46.6074 25.1406 46.6074 25.418H45.5176C45.5176 25.1016 45.6289 24.7969 45.8516 24.5039C46.0781 24.207 46.3828 23.9727 46.7656 23.8008C47.1523 23.6289 47.5762 23.543 48.0371 23.543C48.7676 23.543 49.3398 23.7266 49.7539 24.0938C50.168 24.457 50.3828 24.959 50.3984 25.5996V28.5176C50.3984 29.0996 50.4727 29.5625 50.6211 29.9062V30H49.4844ZM47.6855 29.1738C48.0254 29.1738 48.3477 29.0859 48.6523 28.9102C48.957 28.7344 49.1777 28.5059 49.3145 28.2246V26.9238H48.4648C47.1367 26.9238 46.4727 27.3125 46.4727 28.0898C46.4727 28.4297 46.5859 28.6953 46.8125 28.8867C47.0391 29.0781 47.3301 29.1738 47.6855 29.1738ZM55.1621 24.6328C54.998 24.6055 54.8203 24.5918 54.6289 24.5918C53.918 24.5918 53.4355 24.8945 53.1816 25.5V30H52.0977V23.6602H53.1523L53.1699 24.3926C53.5254 23.8262 54.0293 23.543 54.6816 23.543C54.8926 23.543 55.0527 23.5703 55.1621 23.625V24.6328ZM55.7832 26.7773C55.7832 25.8047 56.0137 25.0234 56.4746 24.4336C56.9355 23.8398 57.5391 23.543 58.2852 23.543C59.0273 23.543 59.6152 23.7969 60.0488 24.3047V21H61.1328V30H60.1367L60.084 29.3203C59.6504 29.8516 59.0469 30.1172 58.2734 30.1172C57.5391 30.1172 56.9395 29.8164 56.4746 29.2148C56.0137 28.6133 55.7832 27.8281 55.7832 26.8594V26.7773ZM56.8672 26.9004C56.8672 27.6191 57.0156 28.1816 57.3125 28.5879C57.6094 28.9941 58.0195 29.1973 58.543 29.1973C59.2305 29.1973 59.7324 28.8887 60.0488 28.2715V25.3594C59.7246 24.7617 59.2266 24.4629 58.5547 24.4629C58.0234 24.4629 57.6094 24.668 57.3125 25.0781C57.0156 25.4883 56.8672 26.0957 56.8672 26.9004Z" fill="white"/>
<g clip-path="url(#clip0)">
<g clip-path="url(#clip1)">
<g clip-path="url(#clip2)">
<path d="M24.9933 0.319946L21.821 18.9359H26.8946L30.0694 0.319946L24.9933 0.319946Z" fill="white"/>
</g>
</g>
<g clip-path="url(#clip3)">
<g clip-path="url(#clip4)">
<path d="M17.5673 0.340956L12.5981 13.0365L12.0683 11.1196C11.0883 8.80987 8.30625 5.49277 5.04004 3.40229L9.58377 18.9269L14.9522 18.9178L22.9422 0.337036L17.5673 0.340956Z" fill="white"/>
</g>
</g>
<path d="M10.1418 1.67341C9.84692 0.539441 8.9922 0.201461 7.9313 0.161011H0.06525L0 0.531611C6.12137 2.01661 10.1718 5.59469 11.8526 9.89701L10.1418 1.67341Z" fill="white"/>
<g clip-path="url(#clip5)">
<g clip-path="url(#clip6)">
<path d="M40.3518 3.88866C42.0117 3.86256 43.2148 4.22533 44.1492 4.60114L44.6072 4.81645L45.2936 0.78164C44.2888 0.40452 42.7137 0 40.7485 0C35.735 0 32.2013 2.52502 32.1739 6.14356C32.1413 8.81734 34.6911 10.3102 36.6172 11.2014C38.5941 12.1149 39.257 12.6955 39.2479 13.5111C39.2322 14.7573 37.6715 15.3289 36.2139 15.3289C34.1822 15.3289 33.103 15.0483 31.4366 14.3541L30.7829 14.0566L30.0691 18.2232C31.2566 18.7438 33.4475 19.1914 35.722 19.2149C41.0552 19.2149 44.5211 16.7199 44.5576 12.8534C44.5798 10.7382 43.2266 9.12399 40.2944 7.7995C38.5198 6.93564 37.4341 6.36148 37.4445 5.48979C37.4445 4.71597 38.3658 3.88865 40.3518 3.88865V3.88866Z" fill="white"/>
</g>
</g>
<g clip-path="url(#clip7)">
<g clip-path="url(#clip8)">
<path fill-rule="evenodd" clip-rule="evenodd" d="M58.3143 0.340942H54.3943C53.1768 0.340942 52.2712 0.672392 51.7362 1.88596L44.2029 18.9465H49.5309C49.5309 18.9465 50.3999 16.6524 50.597 16.15C51.1803 16.15 56.3569 16.1579 57.0942 16.1579C57.2455 16.8077 57.7127 18.9465 57.7127 18.9465H62.4195L58.3143 0.340942ZM52.0572 12.3397C52.4748 11.2709 54.0785 7.13695 54.0785 7.13695C54.0511 7.18784 54.4922 6.06039 54.7545 5.35965L55.0964 6.9647C55.0964 6.9647 56.0685 11.4093 56.2721 12.3397H52.0572Z" fill="white"/>
</g>
</g>
</g>
<defs>
<clipPath id="clip0">
<rect width="62.4197" height="19.2149" fill="white"/>
</clipPath>
<clipPath id="clip1">
<rect width="8.24839" height="18.616" fill="white" transform="translate(21.821 0.319946)"/>
</clipPath>
<clipPath id="clip2">
<rect width="8.24839" height="18.616" fill="white" transform="translate(21.821 0.319946)"/>
</clipPath>
<clipPath id="clip3">
<rect width="17.9022" height="18.5899" fill="white" transform="translate(5.04004 0.337036)"/>
</clipPath>
<clipPath id="clip4">
<rect width="17.9022" height="18.5899" fill="white" transform="translate(5.04004 0.337036)"/>
</clipPath>
<clipPath id="clip5">
<rect width="15.2245" height="19.2149" fill="white" transform="translate(30.0691)"/>
</clipPath>
<clipPath id="clip6">
<rect width="15.2245" height="19.2149" fill="white" transform="translate(30.0691)"/>
</clipPath>
<clipPath id="clip7">
<rect width="18.2167" height="18.6055" fill="white" transform="translate(44.2029 0.340942)"/>
</clipPath>
<clipPath id="clip8">
<rect width="18.2167" height="18.6055" fill="white" transform="translate(44.2029 0.340942)"/>
</clipPath>
</defs>
</svg>
